module gitlab.com/plantd/plantcli

go 1.12

require (
	github.com/golang/protobuf v1.3.2
	github.com/konsorten/go-windows-terminal-sequences v1.0.2 // indirect
	github.com/mitchellh/go-homedir v1.1.0
	github.com/pelletier/go-toml v1.6.0 // indirect
	github.com/spf13/afero v1.2.2 // indirect
	github.com/spf13/cobra v0.0.5
	github.com/spf13/jwalterweatherman v1.1.0 // indirect
	github.com/spf13/pflag v1.0.5 // indirect
	github.com/spf13/viper v1.5.0
	gitlab.com/plantd/go-plantd v0.1.22-0.20191202012503-4af63e99a5bb
	gitlab.com/plantd/go-zapi v0.0.0-20191011203435-babea2a4d192
	golang.org/x/net v0.0.0-20191126235420-ef20fe5d7933 // indirect
	golang.org/x/sys v0.0.0-20191128015809-6d18c012aee9 // indirect
	golang.org/x/text v0.3.2 // indirect
	google.golang.org/genproto v0.0.0-20191115221424-83cc0476cb11 // indirect
	google.golang.org/grpc v1.25.1 // indirect
	gopkg.in/yaml.v2 v2.2.7 // indirect
)
